^C:\USERS\TRISHANI.NAIDU\DESKTOP\NEW FOLDER\EVOLVE\BLUE SECURITY - INVOICE GENERATOR\BS - REPORT GENERATOR - STATEMENT - COMBINED\INVOICE REPORT\FORMS\FRMINVOICESIMPLEREPORTER.RESX
C:\WINDOWS\ASSEMBLY\PUBPOL65.DAT
^C:\USERS\TRISHANI.NAIDU\DESKTOP\NEW FOLDER\EVOLVE\BLUE SECURITY - INVOICE GENERATOR\BS - REPORT GENERATOR - STATEMENT - COMBINED\INVOICE REPORT\FORMS\FRMINVOICEPOSTREPORTER.RESX
^C:\USERS\TRISHANI.NAIDU\DESKTOP\NEW FOLDER\EVOLVE\BLUE SECURITY - INVOICE GENERATOR\BS - REPORT GENERATOR - STATEMENT - COMBINED\INVOICE REPORT\FORMS\FRMDATESELECTION.RESX
^C:\USERS\TRISHANI.NAIDU\DESKTOP\NEW FOLDER\EVOLVE\BLUE SECURITY - INVOICE GENERATOR\BS - REPORT GENERATOR - STATEMENT - COMBINED\INVOICE REPORT\FORMS\FRMEMAILSETTINGS.RESX
^C:\USERS\TRISHANI.NAIDU\DESKTOP\NEW FOLDER\EVOLVE\BLUE SECURITY - INVOICE GENERATOR\BS - REPORT GENERATOR - STATEMENT - COMBINED\INVOICE REPORT\FORMS\FRMINVOICEREPORTER.RESX
^C:\USERS\TRISHANI.NAIDU\DESKTOP\NEW FOLDER\EVOLVE\BLUE SECURITY - INVOICE GENERATOR\BS - REPORT GENERATOR - STATEMENT - COMBINED\INVOICE REPORT\FORMS\FRMSTATEMENTREPMAIN.RESX
^C:\USERS\TRISHANI.NAIDU\DESKTOP\NEW FOLDER\EVOLVE\BLUE SECURITY - INVOICE GENERATOR\BS - REPORT GENERATOR - STATEMENT - COMBINED\INVOICE REPORT\FORMS\FRMIMPORTFILE.RESX
^C:\USERS\TRISHANI.NAIDU\DESKTOP\NEW FOLDER\EVOLVE\BLUE SECURITY - INVOICE GENERATOR\BS - REPORT GENERATOR - STATEMENT - COMBINED\INVOICE REPORT\FORMS\FRMPROCESSING.RESX
^C:\USERS\TRISHANI.NAIDU\DESKTOP\NEW FOLDER\EVOLVE\BLUE SECURITY - INVOICE GENERATOR\BS - REPORT GENERATOR - STATEMENT - COMBINED\INVOICE REPORT\FORMS\FRMSETTINGS.RESX
^C:\USERS\TRISHANI.NAIDU\DESKTOP\NEW FOLDER\EVOLVE\BLUE SECURITY - INVOICE GENERATOR\BS - REPORT GENERATOR - STATEMENT - COMBINED\INVOICE REPORT\MY PROJECT\RESOURCES.RESX
C:\USERS\TRISHANI.NAIDU\DESKTOP\NEW FOLDER\EVOLVE\BLUE SECURITY - INVOICE GENERATOR\BS - REPORT GENERATOR - STATEMENT - COMBINED\INVOICE REPORT\RESOURCES\3D RITZY R.JPG
