^C:\USERS\TRISHANI.NAIDU\DESKTOP\NEW FOLDER\EVOLVE\BLUE SECURITY - PAYMENT ALLOCATIONS\BLUE SECURITY - PAYMENT ALLOCATIONS\PAYMENT ALLOCATIONS\FORMS\FRMLOGIN.RESX|C:\USERS\TRISHANI.NAIDU\DESKTOP\NEW FOLDER\EVOLVE\BLUE SECURITY - PAYMENT ALLOCATIONS\BLUE SECURITY - PAYMENT ALLOCATIONS\PAYMENT ALLOCATIONS\FORMS\FRMPROCESSING.RESX|C:\USERS\TRISHANI.NAIDU\DESKTOP\NEW FOLDER\EVOLVE\BLUE SECURITY - PAYMENT ALLOCATIONS\BLUE SECURITY - PAYMENT ALLOCATIONS\PAYMENT ALLOCATIONS\FORMS\FRMRECEIPTINGMAIN.RESX|C:\USERS\TRISHANI.NAIDU\DESKTOP\NEW FOLDER\EVOLVE\BLUE SECURITY - PAYMENT ALLOCATIONS\BLUE SECURITY - PAYMENT ALLOCATIONS\PAYMENT ALLOCATIONS\FORMS\FRMSETTINGS.RESX|C:\USERS\TRISHANI.NAIDU\DESKTOP\NEW FOLDER\EVOLVE\BLUE SECURITY - PAYMENT ALLOCATIONS\BLUE SECURITY - PAYMENT ALLOCATIONS\PAYMENT ALLOCATIONS\MY PROJECT\RESOURCES.RESX
C:\USERS\TRISHANI.NAIDU\DESKTOP\NEW FOLDER\EVOLVE\BLUE SECURITY - PAYMENT ALLOCATIONS\BLUE SECURITY - PAYMENT ALLOCATIONS\PAYMENT ALLOCATIONS\OBJ\X86\DEBUG\PAYMENT_ALLOCATIONS.FRMLOGIN.RESOURCES
C:\USERS\TRISHANI.NAIDU\DESKTOP\NEW FOLDER\EVOLVE\BLUE SECURITY - PAYMENT ALLOCATIONS\BLUE SECURITY - PAYMENT ALLOCATIONS\PAYMENT ALLOCATIONS\OBJ\X86\DEBUG\PAYMENT_ALLOCATIONS.FRMRECEIPTINGMAIN.RESOURCES
C:\USERS\TRISHANI.NAIDU\DESKTOP\NEW FOLDER\EVOLVE\BLUE SECURITY - PAYMENT ALLOCATIONS\BLUE SECURITY - PAYMENT ALLOCATIONS\PAYMENT ALLOCATIONS\OBJ\X86\DEBUG\PAYMENT_ALLOCATIONS.FRMPROCESSING.RESOURCES
C:\USERS\TRISHANI.NAIDU\DESKTOP\NEW FOLDER\EVOLVE\BLUE SECURITY - PAYMENT ALLOCATIONS\BLUE SECURITY - PAYMENT ALLOCATIONS\PAYMENT ALLOCATIONS\OBJ\X86\DEBUG\PAYMENT_ALLOCATIONS.FRMSETTINGS.RESOURCES
C:\USERS\TRISHANI.NAIDU\DESKTOP\NEW FOLDER\EVOLVE\BLUE SECURITY - PAYMENT ALLOCATIONS\BLUE SECURITY - PAYMENT ALLOCATIONS\PAYMENT ALLOCATIONS\OBJ\X86\DEBUG\PAYMENT_ALLOCATIONS.RESOURCES.RESOURCES
